<?xml version="1.0" encoding="UTF-8" standalone="no"?>
<!-- Created with Inkscape (http://www.inkscape.org/) -->

<svg
   version="1.1"
   id="svg1"
   width="85.333336"
   height="85.333336"
   viewBox="0 0 85.333336 85.333336"
   sodipodi:docname="favicon-circle.svg"
   inkscape:version="1.3.2 (091e20ef0f, 2023-11-25, custom)"
   inkscape:export-filename="favilite.png"
   inkscape:export-xdpi="72"
   inkscape:export-ydpi="72"
   xmlns:inkscape="http://www.inkscape.org/namespaces/inkscape"
   xmlns:sodipodi="http://sodipodi.sourceforge.net/DTD/sodipodi-0.dtd"
   xmlns="http://www.w3.org/2000/svg"
   xmlns:svg="http://www.w3.org/2000/svg">
  <defs
     id="defs1">
    <clipPath
       clipPathUnits="userSpaceOnUse"
       id="clipPath51">
      <circle
         style="fill:#ffffff;fill-opacity:1;stroke:none;stroke-width:0.969327;stroke-linecap:round;stroke-linejoin:round;stroke-dasharray:none;stroke-dashoffset:0;stroke-opacity:1;paint-order:fill markers stroke"
         id="circle51"
         cx="42.987297"
         cy="42.198254"
         r="41.169689" />
    </clipPath>
  </defs>
  <sodipodi:namedview
     id="namedview1"
     pagecolor="#ffffff"
     bordercolor="#000000"
     borderopacity="0.25"
     inkscape:showpageshadow="2"
     inkscape:pageopacity="0.0"
     inkscape:pagecheckerboard="0"
     inkscape:deskcolor="#d1d1d1"
     showguides="false"
     inkscape:zoom="4.7109374"
     inkscape:cx="56.888891"
     inkscape:cy="54.129355"
     inkscape:window-width="1910"
     inkscape:window-height="1016"
     inkscape:window-x="5"
     inkscape:window-y="35"
     inkscape:window-maximized="1"
     inkscape:current-layer="g1" />
  <g
     inkscape:groupmode="layer"
     inkscape:label="Image"
     id="g1">
    <g
       id="g51"
       clip-path="url(#clipPath51)">
      <g
         id="g50">
        <path
           style="fill:#0b92b4;fill-opacity:1;stroke:#000000;stroke-opacity:1"
           d="m 84.979765,32.235331 -3.333216,2.53887 -4.45828,2.459566 -4.936033,2.767101 -5.793037,3.305393 -5.367009,2.703476 -4.675806,3.251826 -5.856818,2.652778 -4.62175,0.957082 -4.513793,0.451854 -2.689359,-0.743953 -2.459056,-1.374454 -3.073845,-1.169854 -2.533085,-0.774387 -3.94826,-1.364148 -4.27231,-1.38442 L 17.636651,45.293002 11.708621,43.20468 4.9866792,40.871916 0.36598072,38.950377 0.0614518,0.2532645 85.283508,-0.00359123 Z"
           id="path24"
           sodipodi:nodetypes="ccccccccccccccccccccccc" />
        <path
           style="fill:#ffffff;stroke:#000000;stroke-opacity:1"
           d="m 0.09543111,39.318817 5.65784879,1.987857 5.2034791,1.801983 4.828156,1.685942 3.661232,1.052222 4.708265,1.343094 4.013186,1.207361 3.870169,1.322994 5.64492,2.734759 1.291214,0.831042 0.838615,0.870574 0.300592,2.014582 0.08807,2.212539 -0.682185,2.832514 -1.052599,2.408577 -1.075142,1.773581 -1.322414,1.914636 -2.954095,3.218798 -3.3822,2.948356 -4.048165,3.110843 -4.688434,3.411123 -5.321789,3.600964 -3.048294,1.721301 -12.59146714,0.07105 z"
           id="path23"
           sodipodi:nodetypes="ccccccccccccccccccccccccc" />
        <path
           style="fill:#ffffff;fill-opacity:1;stroke:#000000;stroke-width:1;stroke-linecap:round;stroke-linejoin:round;stroke-dasharray:none;stroke-dashoffset:0;stroke-opacity:1;paint-order:fill markers stroke"
           d="m 85.162184,80.148674 -4.039625,-0.24261 -4.453278,-1.229146 -5.149135,-2.594337 -3.361881,-2.31303 -3.678322,-2.790426 -3.490259,-3.124273 -3.436189,-3.903389 -3.092722,-4.617421 -1.809683,-4.065807 0.328091,-1.920656 0.910723,-1.861159 1.482585,-1.523086 4.286038,-2.707732 4.401809,-2.702248 4.767065,-2.628626 4.310199,-2.270035 5.337037,-3.113447 3.498141,-2.164174 3.22029,-2.468393 z"
           id="path29"
           sodipodi:nodetypes="ccccccccccccccccccccc" />
        <path
           style="fill:#ffffff;fill-opacity:1;stroke:#000000;stroke-width:1;stroke-linecap:round;stroke-linejoin:round;stroke-dasharray:none;stroke-dashoffset:0;stroke-opacity:1;paint-order:fill markers stroke"
           d="m 12.81984,85.28613 5.409284,-3.379156 3.78245,-2.679303 2.77283,-1.860672 3.556941,-2.721413 4.551621,-3.777441 3.40288,-3.892458 2.107537,-3.52726 1.302457,-3.455398 0.231853,-3.297152 -0.109443,-3.180593 4.285828,-0.05573 4.118996,-0.651514 3.09857,-0.764434 2.342895,-0.892219 -0.04781,3.845082 0.793657,2.945236 1.222093,3.155371 2.408174,3.262074 2.131671,2.475787 2.904689,3.071585 3.13391,2.627456 5.295626,3.750291 4.912198,2.277026 4.3558,1.285746 4.080599,0.294725 0.09757,5.272304 z"
           id="path30"
           sodipodi:nodetypes="cccccccccccccccccccccccccccc" />
        <ellipse
           style="fill:#000000;fill-opacity:1;stroke:#000000;stroke-width:0.93952;stroke-linecap:round;stroke-linejoin:round;stroke-dasharray:none;stroke-dashoffset:0;stroke-opacity:1;paint-order:fill markers stroke"
           id="path27"
           cx="64.972679"
           cy="53.077587"
           rx="7.7745543"
           ry="7.8416562" />
        <ellipse
           style="fill:#000000;fill-opacity:1;stroke:#000000;stroke-width:1.29692;stroke-linecap:round;stroke-linejoin:round;stroke-dasharray:none;stroke-dashoffset:0;stroke-opacity:1;paint-order:fill markers stroke"
           id="path28"
           cx="50.526577"
           cy="39.571735"
           rx="6.1470389"
           ry="6.7829509"
           transform="rotate(24.222583)" />
      </g>
      <path
         style="fill:#000000;fill-opacity:1;stroke:#000000;stroke-width:0.941285;stroke-linejoin:round;stroke-opacity:1"
         d="m 24.09107,84.013928 11.286339,-2.335913 11.469607,-2.238493 11.9834,-3.027117 7.516675,-3.142673 0.65841,4.237366 z"
         id="path25"
         sodipodi:nodetypes="ccccccc" />
    </g>
  </g>
</svg>
